{
	"data": [{
		"budget_id": 704,
		"id": 3721,
		"start_date": "2021-02-01",
		"end_date": "2021-02-28",
		"target_amount": "127.00",
		"current_amount": "0.00",
		"required_amount": "127.00",
		"tracking_status": "below",
		"index": 7
	}, {
		"budget_id": 702,
		"id": 3707,
		"start_date": "2021-03-01",
		"end_date": "2021-03-31",
		"target_amount": "127.00",
		"current_amount": "0.00",
		"required_amount": "127.00",
		"tracking_status": "below",
		"index": 2
	}, {
		"budget_id": 704,
		"id": 3722,
		"start_date": "2021-03-01",
		"end_date": "2021-03-31",
		"target_amount": "127.00",
		"current_amount": "0.00",
		"required_amount": "127.00",
		"tracking_status": "below",
		"index": 8
	}, {
		"budget_id": 701,
		"id": 3702,
		"start_date": "2021-04-01",
		"end_date": "2021-04-30",
		"target_amount": "127.00",
		"current_amount": "0.00",
		"required_amount": "127.00",
		"tracking_status": "below",
		"index": 0
	}, {
		"budget_id": 702,
		"id": 3708,
		"start_date": "2021-04-01",
		"end_date": "2021-04-30",
		"target_amount": "127.00",
		"current_amount": "0.00",
		"required_amount": "127.00",
		"tracking_status": "below",
		"index": 3
	}, {
		"budget_id": 704,
		"id": 3723,
		"start_date": "2021-04-01",
		"end_date": "2021-04-30",
		"target_amount": "127.00",
		"current_amount": "0.00",
		"required_amount": "127.00",
		"tracking_status": "below",
		"index": 9
	}, {
		"budget_id": 701,
		"id": 3703,
		"start_date": "2021-05-01",
		"end_date": "2021-05-31",
		"target_amount": "127.00",
		"current_amount": "0.00",
		"required_amount": "127.00",
		"tracking_status": "below",
		"index": 1
	}, {
		"budget_id": 702,
		"id": 3709,
		"start_date": "2021-05-01",
		"end_date": "2021-05-31",
		"target_amount": "127.00",
		"current_amount": "0.00",
		"required_amount": "127.00",
		"tracking_status": "below",
		"index": 4
	}, {
		"budget_id": 704,
		"id": 3724,
		"start_date": "2021-05-01",
		"end_date": "2021-05-31",
		"target_amount": "127.00",
		"current_amount": "0.00",
		"required_amount": "127.00",
		"tracking_status": "below",
		"index": 10
	}],
	"paging": {
		"cursors": {
			"before": "1612137600_3721",
			"after": "1619827200_3724"
		},
		"previous": "https://api-staging.frollo.us/api/v2/budget/cycles/periods/?before=1612137600_3721\u0026size=9\u0026",
		"next": "https://api-staging.frollo.us/api/v2/budget/cycles/periods/?after=1619827200_3724\u0026size=9\u0026",
		"total": 24
	}
}