{
	"data": [{
		"budget_id": 704,
		"id": 3714,
		"start_date": "2020-07-01",
		"end_date": "2020-07-31",
		"target_amount": "127.00",
		"current_amount": "25.00",
		"required_amount": "127.00",
		"tracking_status": "below",
		"index": 0
	}, {
		"budget_id": 704,
		"id": 3715,
		"start_date": "2020-08-01",
		"end_date": "2020-08-31",
		"target_amount": "127.00",
		"current_amount": "25.00",
		"required_amount": "127.00",
		"tracking_status": "below",
		"index": 1
	}, {
		"budget_id": 704,
		"id": 3716,
		"start_date": "2020-09-01",
		"end_date": "2020-09-30",
		"target_amount": "127.00",
		"current_amount": "25.00",
		"required_amount": "127.00",
		"tracking_status": "below",
		"index": 2
	}, {
		"budget_id": 704,
		"id": 3717,
		"start_date": "2020-10-01",
		"end_date": "2020-10-31",
		"target_amount": "127.00",
		"current_amount": "25.00",
		"required_amount": "127.00",
		"tracking_status": "below",
		"index": 3
	}, {
		"budget_id": 704,
		"id": 3718,
		"start_date": "2020-11-01",
		"end_date": "2020-11-30",
		"target_amount": "127.00",
		"current_amount": "200.00",
		"required_amount": "127.00",
		"tracking_status": "above",
		"index": 4
	}, {
		"budget_id": 704,
		"id": 3719,
		"start_date": "2020-12-01",
		"end_date": "2020-12-31",
		"target_amount": "127.00",
		"current_amount": "25.00",
		"required_amount": "127.00",
		"tracking_status": "below",
		"index": 5
	}, {
		"budget_id": 704,
		"id": 3720,
		"start_date": "2021-01-01",
		"end_date": "2021-01-31",
		"target_amount": "127.00",
		"current_amount": "25.00",
		"required_amount": "127.00",
		"tracking_status": "below",
		"index": 6
	}, {
		"budget_id": 704,
		"id": 3706,
		"start_date": "2021-02-01",
		"end_date": "2021-02-28",
		"target_amount": "127.00",
		"current_amount": "0.00",
		"required_amount": "127.00",
		"tracking_status": "below",
		"index": 1
	}],
	"paging": {
		"cursors": {
			"before": null,
			"after": "1612137600_3706"
		},
		"next": "https://api-staging.frollo.us/api/v2/budget/cycles/periods/?after=1612137600_3706\u0026size=9\u0026",
		"total": 11
	}
}